<?xml version="1.0" encoding="UTF-8"?>
<session version="1.0">
<refactoring accessors="true" comment="Delete element from project &apos;common-utils&apos;&#x0D;&#x0A;- Original project: &apos;common-utils&apos;&#x0D;&#x0A;- Original element: &apos;common-utils/src/main/java/com.ocs.common.dto.login&apos;" description="Delete element" element1="/src\/main\/java=/optional=/true=/=/maven.pomderived=/true=/&lt;com.ocs.common.dto.login" elements="1" flags="589830" id="org.eclipse.jdt.ui.delete" resources="0" stamp="1721214563470" subPackages="false" version="1.0"/>
</session>